Simulacion/seno_tb.vcd
$date
  Sun Jun 11 06:44:21 2023
$end
$version
  GHDL v0
$end
$timescale
  1 fs
$end
$scope module standard $end
$upscope $end
$scope module std_logic_1164 $end
$upscope $end
$scope module numeric_std $end
$upscope $end
$scope module seno_tb $end
$var reg 1 ! clk_tb $end
$var reg 1 " reset_tb $end
$var reg 1 # enable_tb $end
$var reg 25 $ inc_tb[24:0] $end
$var reg 12 % sine_out_tb[11:0] $end
$scope module dut $end
$var reg 1 & s_reloj_i $end
$var reg 1 ' s_reset_i $end
$var reg 1 ( s_habilitar_i $end
$var reg 25 ) s_incremento_i[24:0] $end
$var reg 12 * s_seno_o[11:0] $end
$var reg 10 + fase[9:0] $end
$scope module af $end
$var reg 1 , reloj_i $end
$var reg 1 - reset_i $end
$var reg 1 . habilitar_i $end
$var reg 25 / incremento_i[24:0] $end
$var reg 10 0 fase_o[9:0] $end
$var reg 30 1 contador[29:0] $end
$upscope $end
$scope module cfa $end
$var reg 1 2 reset_i $end
$var reg 10 3 fase_i[9:0] $end
$var reg 12 4 seno_o[11:0] $end
$var reg 12 5 dato[11:0] $end
$upscope $end
$upscope $end
$upscope $end
$enddefinitions $end
#0
0!
1"
0#
b0100000110001001001101110 $
b000000000000 %
0&
1'
0(
b0100000110001001001101110 )
b000000000000 *
b0000000000 +
0,
1-
0.
b0100000110001001001101110 /
b0000000000 0
b000000000000000000000000000000 1
12
b0000000000 3
b000000000000 4
b000000000000 5
#4000000
1!
1&
1,
#8000000
0!
0&
0,
#10000000
0"
b011111111111 %
0'
b011111111111 *
0-
02
b011111111111 4
b011111111111 5
#12000000
1!
1&
1,
#16000000
0!
0&
0,
#20000000
1!
1#
b100001100011 %
1&
1(
b100001100011 *
b0000001000 +
1,
1.
b0000001000 0
b000000100000110001001001101110 1
b0000001000 3
b100001100011 4
b100001100011 5
#24000000
0!
0&
0,
#28000000
1!
b100011001000 %
1&
b100011001000 *
b0000010000 +
1,
b0000010000 0
b000001000001100010010011011100 1
b0000010000 3
b100011001000 4
b100011001000 5
#32000000
0!
0&
0,
#36000000
1!
b100100101011 %
1&
b100100101011 *
b0000011000 +
1,
b0000011000 0
b000001100010010011011101001010 1
b0000011000 3
b100100101011 4
b100100101011 5
#40000000
0!
0&
0,
#44000000
1!
b100110001110 %
1&
b100110001110 *
b0000100000 +
1,
b0000100000 0
b000010000011000100100110111000 1
b0000100000 3
b100110001110 4
b100110001110 5
#48000000
0!
0&
0,
#52000000
1!
b100111110001 %
1&
b100111110001 *
b0000101000 +
1,
b0000101000 0
b000010100011110101110000100110 1
b0000101000 3
b100111110001 4
b100111110001 5
#56000000
0!
0&
0,
#60000000
1!
b101001011101 %
1&
b101001011101 *
b0000110001 +
1,
b0000110001 0
b000011000100100110111010010100 1
b0000110001 3
b101001011101 4
b101001011101 5
#64000000
0!
0&
0,
#68000000
1!
b101010111101 %
1&
b101010111101 *
b0000111001 +
1,
b0000111001 0
b000011100101011000000100000010 1
b0000111001 3
b101010111101 4
b101010111101 5
#72000000
0!
0&
0,
#76000000
1!
b101100011010 %
1&
b101100011010 *
b0001000001 +
1,
b0001000001 0
b000100000110001001001101110000 1
b0001000001 3
b101100011010 4
b101100011010 5
#80000000
0!
0&
0,
#84000000
1!
b101101110110 %
1&
b101101110110 *
b0001001001 +
1,
b0001001001 0
b000100100110111010010111011110 1
b0001001001 3
b101101110110 4
b101101110110 5
#88000000
0!
0&
0,
#92000000
1!
b101111001111 %
1&
b101111001111 *
b0001010001 +
1,
b0001010001 0
b000101000111101011100001001100 1
b0001010001 3
b101111001111 4
b101111001111 5
#96000000
0!
0&
0,
#100000000
1!
b110000110001 %
1&
b110000110001 *
b0001011010 +
1,
b0001011010 0
b000101101000011100101010111010 1
b0001011010 3
b110000110001 4
b110000110001 5
#104000000
0!
0&
0,
#108000000
1!
b110010000101 %
1&
b110010000101 *
b0001100010 +
1,
b0001100010 0
b000110001001001101110100101000 1
b0001100010 3
b110010000101 4
b110010000101 5
#112000000
0!
0&
0,
#116000000
1!
b110011010111 %
1&
b110011010111 *
b0001101010 +
1,
b0001101010 0
b000110101001111110111110010110 1
b0001101010 3
b110011010111 4
b110011010111 5
#120000000
0!
0&
0,
#124000000
1!
b110100100101 %
1&
b110100100101 *
b0001110010 +
1,
b0001110010 0
b000111001010110000001000000100 1
b0001110010 3
b110100100101 4
b110100100101 5
#128000000
0!
0&
0,
#132000000
1!
b110101110001 %
1&
b110101110001 *
b0001111010 +
1,
b0001111010 0
b000111101011100001010001110010 1
b0001111010 3
b110101110001 4
b110101110001 5
#136000000
0!
0&
0,
#140000000
1!
b110111000001 %
1&
b110111000001 *
b0010000011 +
1,
b0010000011 0
b001000001100010010011011100000 1
b0010000011 3
b110111000001 4
b110111000001 5
#144000000
0!
0&
0,
#148000000
1!
b111000000101 %
1&
b111000000101 *
b0010001011 +
1,
b0010001011 0
b001000101101000011100101001110 1
b0010001011 3
b111000000101 4
b111000000101 5
#152000000
0!
0&
0,
#156000000
1!
b111001000101 %
1&
b111001000101 *
b0010010011 +
1,
b0010010011 0
b001001001101110100101110111100 1
b0010010011 3
b111001000101 4
b111001000101 5
#160000000
0!
0&
0,
#164000000
1!
b111010000010 %
1&
b111010000010 *
b0010011011 +
1,
b0010011011 0
b001001101110100101111000101010 1
b0010011011 3
b111010000010 4
b111010000010 5
#168000000
0!
0&
0,
#172000000
1!
b111010111010 %
1&
b111010111010 *
b0010100011 +
1,
b0010100011 0
b001010001111010111000010011000 1
b0010100011 3
b111010111010 4
b111010111010 5
#176000000
0!
0&
0,
#180000000
1!
b111011110101 %
1&
b111011110101 *
b0010101100 +
1,
b0010101100 0
b001010110000001000001100000110 1
b0010101100 3
b111011110101 4
b111011110101 5
#184000000
0!
0&
0,
#188000000
1!
b111100100100 %
1&
b111100100100 *
b0010110100 +
1,
b0010110100 0
b001011010000111001010101110100 1
b0010110100 3
b111100100100 4
b111100100100 5
#192000000
0!
0&
0,
#196000000
1!
b111101001111 %
1&
b111101001111 *
b0010111100 +
1,
b0010111100 0
b001011110001101010011111100010 1
b0010111100 3
b111101001111 4
b111101001111 5
#200000000
0!
0&
0,
#204000000
1!
b111101110101 %
1&
b111101110101 *
b0011000100 +
1,
b0011000100 0
b001100010010011011101001010000 1
b0011000100 3
b111101110101 4
b111101110101 5
#208000000
0!
0&
0,
#212000000
1!
b111110010111 %
1&
b111110010111 *
b0011001100 +
1,
b0011001100 0
b001100110011001100110010111110 1
b0011001100 3
b111110010111 4
b111110010111 5
#216000000
0!
0&
0,
#220000000
1!
b111110110100 %
1&
b111110110100 *
b0011010100 +
1,
b0011010100 0
b001101010011111101111100101100 1
b0011010100 3
b111110110100 4
b111110110100 5
#224000000
0!
0&
0,
#228000000
1!
b111111001111 %
1&
b111111001111 *
b0011011101 +
1,
b0011011101 0
b001101110100101111000110011010 1
b0011011101 3
b111111001111 4
b111111001111 5
#232000000
0!
0&
0,
#236000000
1!
b111111100010 %
1&
b111111100010 *
b0011100101 +
1,
b0011100101 0
b001110010101100000010000001000 1
b0011100101 3
b111111100010 4
b111111100010 5
#240000000
0!
0&
0,
#244000000
1!
b111111110001 %
1&
b111111110001 *
b0011101101 +
1,
b0011101101 0
b001110110110010001011001110110 1
b0011101101 3
b111111110001 4
b111111110001 5
#248000000
0!
0&
0,
#252000000
1!
b111111111010 %
1&
b111111111010 *
b0011110101 +
1,
b0011110101 0
b001111010111000010100011100100 1
b0011110101 3
b111111111010 4
b111111111010 5
#256000000
0!
0&
0,
#260000000
1!
b111111111110 %
1&
b111111111110 *
b0011111101 +
1,
b0011111101 0
b001111110111110011101101010010 1
b0011111101 3
b111111111110 4
b111111111110 5
#264000000
0!
0&
0,
#268000000
1!
b111111111101 %
1&
b111111111101 *
b0100000110 +
1,
b0100000110 0
b010000011000100100110111000000 1
b0100000110 3
b111111111101 4
b111111111101 5
#272000000
0!
0&
0,
#276000000
1!
b111111110111 %
1&
b111111110111 *
b0100001110 +
1,
b0100001110 0
b010000111001010110000000101110 1
b0100001110 3
b111111110111 4
b111111110111 5
#280000000
0!
0&
0,
#284000000
1!
b111111101100 %
1&
b111111101100 *
b0100010110 +
1,
b0100010110 0
b010001011010000111001010011100 1
b0100010110 3
b111111101100 4
b111111101100 5
#288000000
0!
0&
0,
#292000000
1!
b111111011100 %
1&
b111111011100 *
b0100011110 +
1,
b0100011110 0
b010001111010111000010100001010 1
b0100011110 3
b111111011100 4
b111111011100 5
#296000000
0!
0&
0,
#300000000
1!
b111111000111 %
1&
b111111000111 *
b0100100110 +
1,
b0100100110 0
b010010011011101001011101111000 1
b0100100110 3
b111111000111 4
b111111000111 5
#304000000
0!
0&
0,
#308000000
1!
b111110101010 %
1&
b111110101010 *
b0100101111 +
1,
b0100101111 0
b010010111100011010100111100110 1
b0100101111 3
b111110101010 4
b111110101010 5
#312000000
0!
0&
0,
#316000000
1!
b111110001011 %
1&
b111110001011 *
b0100110111 +
1,
b0100110111 0
b010011011101001011110001010100 1
b0100110111 3
b111110001011 4
b111110001011 5
#320000000
0!
0&
0,
#324000000
1!
b111101100111 %
1&
b111101100111 *
b0100111111 +
1,
b0100111111 0
b010011111101111100111011000010 1
b0100111111 3
b111101100111 4
b111101100111 5
#328000000
0!
0&
0,
#332000000
1!
b111100111111 %
1&
b111100111111 *
b0101000111 +
1,
b0101000111 0
b010100011110101110000100110000 1
b0101000111 3
b111100111111 4
b111100111111 5
#336000000
0!
0&
0,
#340000000
1!
b111100010011 %
1&
b111100010011 *
b0101001111 +
1,
b0101001111 0
b010100111111011111001110011110 1
b0101001111 3
b111100010011 4
b111100010011 5
#344000000
0!
0&
0,
#348000000
1!
b111011011011 %
1&
b111011011011 *
b0101011000 +
1,
b0101011000 0
b010101100000010000011000001100 1
b0101011000 3
b111011011011 4
b111011011011 5
#352000000
0!
0&
0,
#356000000
1!
b111010100101 %
1&
b111010100101 *
b0101100000 +
1,
b0101100000 0
b010110000001000001100001111010 1
b0101100000 3
b111010100101 4
b111010100101 5
#360000000
0!
0&
0,
#364000000
1!
b111001101100 %
1&
b111001101100 *
b0101101000 +
1,
b0101101000 0
b010110100001110010101011101000 1
b0101101000 3
b111001101100 4
b111001101100 5
#368000000
0!
0&
0,
#372000000
1!
b111000101110 %
1&
b111000101110 *
b0101110000 +
1,
b0101110000 0
b010111000010100011110101010110 1
b0101110000 3
b111000101110 4
b111000101110 5
#376000000
0!
0&
0,
#380000000
1!
b110111101100 %
1&
b110111101100 *
b0101111000 +
1,
b0101111000 0
b010111100011010100111111000100 1
b0101111000 3
b110111101100 4
b110111101100 5
#384000000
0!
0&
0,
#388000000
1!
b110110011110 %
1&
b110110011110 *
b0110000001 +
1,
b0110000001 0
b011000000100000110001000110010 1
b0110000001 3
b110110011110 4
b110110011110 5
#392000000
0!
0&
0,
#396000000
1!
b110101010101 %
1&
b110101010101 *
b0110001001 +
1,
b0110001001 0
b011000100100110111010010100000 1
b0110001001 3
b110101010101 4
b110101010101 5
#400000000
0!
0&
0,
#404000000
1!
b110100001000 %
1&
b110100001000 *
b0110010001 +
1,
b0110010001 0
b011001000101101000011100001110 1
b0110010001 3
b110100001000 4
b110100001000 5
#408000000
0!
0&
0,
#412000000
1!
b110010111001 %
1&
b110010111001 *
b0110011001 +
1,
b0110011001 0
b011001100110011001100101111100 1
b0110011001 3
b110010111001 4
b110010111001 5
#416000000
0!
0&
0,
#420000000
1!
b110001100110 %
1&
b110001100110 *
b0110100001 +
1,
b0110100001 0
b011010000111001010101111101010 1
b0110100001 3
b110001100110 4
b110001100110 5
#424000000
0!
0&
0,
#428000000
1!
b110000010001 %
1&
b110000010001 *
b0110101001 +
1,
b0110101001 0
b011010100111111011111001011000 1
b0110101001 3
b110000010001 4
b110000010001 5
#432000000
0!
0&
0,
#436000000
1!
b101110101110 %
1&
b101110101110 *
b0110110010 +
1,
b0110110010 0
b011011001000101101000011000110 1
b0110110010 3
b101110101110 4
b101110101110 5
#440000000
0!
0&
0,
#444000000
1!
b101101010100 %
1&
b101101010100 *
b0110111010 +
1,
b0110111010 0
b011011101001011110001100110100 1
b0110111010 3
b101101010100 4
b101101010100 5
#448000000
0!
0&
0,
#452000000
1!
b101011110111 %
1&
b101011110111 *
b0111000010 +
1,
b0111000010 0
b011100001010001111010110100010 1
b0111000010 3
b101011110111 4
b101011110111 5
#456000000
0!
0&
0,
#460000000
1!
b101010011001 %
1&
b101010011001 *
b0111001010 +
1,
b0111001010 0
b011100101011000000100000010000 1
b0111001010 3
b101010011001 4
b101010011001 5
#464000000
0!
0&
0,
#468000000
1!
b101000111001 %
1&
b101000111001 *
b0111010010 +
1,
b0111010010 0
b011101001011110001101001111110 1
b0111010010 3
b101000111001 4
b101000111001 5
#472000000
0!
0&
0,
#476000000
1!
b100111001100 %
1&
b100111001100 *
b0111011011 +
1,
b0111011011 0
b011101101100100010110011101100 1
b0111011011 3
b100111001100 4
b100111001100 5
#480000000
0!
0&
0,
#484000000
1!
b100101101001 %
1&
b100101101001 *
b0111100011 +
1,
b0111100011 0
b011110001101010011111101011010 1
b0111100011 3
b100101101001 4
b100101101001 5
#488000000
0!
0&
0,
#492000000
1!
b100100000110 %
1&
b100100000110 *
b0111101011 +
1,
b0111101011 0
b011110101110000101000111001000 1
b0111101011 3
b100100000110 4
b100100000110 5
#496000000
0!
0&
0,
#500000000
1!
b100010100010 %
1&
b100010100010 *
b0111110011 +
1,
b0111110011 0
b011111001110110110010000110110 1
b0111110011 3
b100010100010 4
b100010100010 5
#504000000
0!
0&
0,
#508000000
1!
b100000111110 %
1&
b100000111110 *
b0111111011 +
1,
b0111111011 0
b011111101111100111011010100100 1
b0111111011 3
b100000111110 4
b100000111110 5
#512000000
0!
0&
0,
#516000000
1!
b011111001101 %
1&
b011111001101 *
b1000000100 +
1,
b1000000100 0
b100000010000011000100100010010 1
b1000000100 3
b011111001101 4
b011111001101 5
#520000000
0!
0&
0,
#524000000
1!
b011101101000 %
1&
b011101101000 *
b1000001100 +
1,
b1000001100 0
b100000110001001001101110000000 1
b1000001100 3
b011101101000 4
b011101101000 5
#528000000
0!
0&
0,
#532000000
1!
b011100000100 %
1&
b011100000100 *
b1000010100 +
1,
b1000010100 0
b100001010001111010110111101110 1
b1000010100 3
b011100000100 4
b011100000100 5
#536000000
0!
0&
0,
#540000000
1!
b011010100001 %
1&
b011010100001 *
b1000011100 +
1,
b1000011100 0
b100001110010101100000001011100 1
b1000011100 3
b011010100001 4
b011010100001 5
#544000000
0!
0&
0,
#548000000
1!
b011000111110 %
1&
b011000111110 *
b1000100100 +
1,
b1000100100 0
b100010010011011101001011001010 1
b1000100100 3
b011000111110 4
b011000111110 5
#552000000
0!
0&
0,
#556000000
1!
b010111010001 %
1&
b010111010001 *
b1000101101 +
1,
b1000101101 0
b100010110100001110010100111000 1
b1000101101 3
b010111010001 4
b010111010001 5
#560000000
0!
0&
0,
#564000000
1!
b010101110001 %
1&
b010101110001 *
b1000110101 +
1,
b1000110101 0
b100011010100111111011110100110 1
b1000110101 3
b010101110001 4
b010101110001 5
#568000000
0!
0&
0,
#572000000
1!
b010100010010 %
1&
b010100010010 *
b1000111101 +
1,
b1000111101 0
b100011110101110000101000010100 1
b1000111101 3
b010100010010 4
b010100010010 5
#576000000
0!
0&
0,
#580000000
1!
b010010110110 %
1&
b010010110110 *
b1001000101 +
1,
b1001000101 0
b100100010110100001110010000010 1
b1001000101 3
b010010110110 4
b010010110110 5
#584000000
0!
0&
0,
#588000000
1!
b010001011011 %
1&
b010001011011 *
b1001001101 +
1,
b1001001101 0
b100100110111010010111011110000 1
b1001001101 3
b010001011011 4
b010001011011 5
#592000000
0!
0&
0,
#596000000
1!
b001111111000 %
1&
b001111111000 *
b1001010110 +
1,
b1001010110 0
b100101011000000100000101011110 1
b1001010110 3
b001111111000 4
b001111111000 5
#600000000
0!
0&
0,
#604000000
1!
b001110100010 %
1&
b001110100010 *
b1001011110 +
1,
b1001011110 0
b100101111000110101001111001100 1
b1001011110 3
b001110100010 4
b001110100010 5
#608000000
0!
0&
0,
#612000000
1!
b001101010000 %
1&
b001101010000 *
b1001100110 +
1,
b1001100110 0
b100110011001100110011000111010 1
b1001100110 3
b001101010000 4
b001101010000 5
#616000000
0!
0&
0,
#620000000
1!
b001100000000 %
1&
b001100000000 *
b1001101110 +
1,
b1001101110 0
b100110111010010111100010101000 1
b1001101110 3
b001100000000 4
b001100000000 5
#624000000
0!
0&
0,
#628000000
1!
b001010110011 %
1&
b001010110011 *
b1001110110 +
1,
b1001110110 0
b100111011011001000101100010110 1
b1001110110 3
b001010110011 4
b001010110011 5
#632000000
0!
0&
0,
#636000000
1!
b001001101001 %
1&
b001001101001 *
b1001111110 +
1,
b1001111110 0
b100111111011111001110110000100 1
b1001111110 3
b001001101001 4
b001001101001 5
#640000000
0!
0&
0,
#644000000
1!
b001000011010 %
1&
b001000011010 *
b1010000111 +
1,
b1010000111 0
b101000011100101010111111110010 1
b1010000111 3
b001000011010 4
b001000011010 5
#648000000
0!
0&
0,
#652000000
1!
b000111011000 %
1&
b000111011000 *
b1010001111 +
1,
b1010001111 0
b101000111101011100001001100000 1
b1010001111 3
b000111011000 4
b000111011000 5
#656000000
0!
0&
0,
#660000000
1!
b000110011010 %
1&
b000110011010 *
b1010010111 +
1,
b1010010111 0
b101001011110001101010011001110 1
b1010010111 3
b000110011010 4
b000110011010 5
#664000000
0!
0&
0,
#668000000
1!
b000101100000 %
1&
b000101100000 *
b1010011111 +
1,
b1010011111 0
b101001111110111110011100111100 1
b1010011111 3
b000101100000 4
b000101100000 5
#672000000
0!
0&
0,
#676000000
1!
b000100101001 %
1&
b000100101001 *
b1010100111 +
1,
b1010100111 0
b101010011111101111100110101010 1
b1010100111 3
b000100101001 4
b000100101001 5
#680000000
0!
0&
0,
#684000000
1!
b000011110001 %
1&
b000011110001 *
b1010110000 +
1,
b1010110000 0
b101011000000100000110000011000 1
b1010110000 3
b000011110001 4
b000011110001 5
#688000000
0!
0&
0,
#692000000
1!
b000011000100 %
1&
b000011000100 *
b1010111000 +
1,
b1010111000 0
b101011100001010001111010000110 1
b1010111000 3
b000011000100 4
b000011000100 5
#696000000
0!
0&
0,
#700000000
1!
b000010011011 %
1&
b000010011011 *
b1011000000 +
1,
b1011000000 0
b101100000010000011000011110100 1
b1011000000 3
b000010011011 4
b000010011011 5
#704000000
0!
0&
0,
#708000000
1!
b000001110111 %
1&
b000001110111 *
b1011001000 +
1,
b1011001000 0
b101100100010110100001101100010 1
b1011001000 3
b000001110111 4
b000001110111 5
#712000000
0!
0&
0,
#716000000
1!
b000001011000 %
1&
b000001011000 *
b1011010000 +
1,
b1011010000 0
b101101000011100101010111010000 1
b1011010000 3
b000001011000 4
b000001011000 5
#720000000
0!
0&
0,
#724000000
1!
b000000111010 %
1&
b000000111010 *
b1011011001 +
1,
b1011011001 0
b101101100100010110100000111110 1
b1011011001 3
b000000111010 4
b000000111010 5
#728000000
0!
0&
0,
#732000000
1!
b000000100100 %
1&
b000000100100 *
b1011100001 +
1,
b1011100001 0
b101110000101000111101010101100 1
b1011100001 3
b000000100100 4
b000000100100 5
#736000000
0!
0&
0,
#740000000
1!
b000000010100 %
1&
b000000010100 *
b1011101001 +
1,
b1011101001 0
b101110100101111000110100011010 1
b1011101001 3
b000000010100 4
b000000010100 5
#744000000
0!
0&
0,
#748000000
1!
b000000001000 %
1&
b000000001000 *
b1011110001 +
1,
b1011110001 0
b101111000110101001111110001000 1
b1011110001 3
b000000001000 4
b000000001000 5
#752000000
0!
0&
0,
#756000000
1!
b000000000001 %
1&
b000000000001 *
b1011111001 +
1,
b1011111001 0
b101111100111011011000111110110 1
b1011111001 3
b000000000001 4
b000000000001 5
#760000000
0!
0&
0,
#764000000
1!
b000000000000 %
1&
b000000000000 *
b1100000010 +
1,
b1100000010 0
b110000001000001100010001100100 1
b1100000010 3
b000000000000 4
b000000000000 5
#768000000
0!
0&
0,
#772000000
1!
b000000000011 %
1&
b000000000011 *
b1100001010 +
1,
b1100001010 0
b110000101000111101011011010010 1
b1100001010 3
b000000000011 4
b000000000011 5
#776000000
0!
0&
0,
#780000000
1!
b000000001100 %
1&
b000000001100 *
b1100010010 +
1,
b1100010010 0
b110001001001101110100101000000 1
b1100010010 3
b000000001100 4
b000000001100 5
#784000000
0!
0&
0,
#788000000
1!
b000000011010 %
1&
b000000011010 *
b1100011010 +
1,
b1100011010 0
b110001101010011111101110101110 1
b1100011010 3
b000000011010 4
b000000011010 5
#792000000
0!
0&
0,
#796000000
1!
b000000101100 %
1&
b000000101100 *
b1100100010 +
1,
b1100100010 0
b110010001011010000111000011100 1
b1100100010 3
b000000101100 4
b000000101100 5
#800000000
0!
0&
0,
#804000000
1!
b000001000110 %
1&
b000001000110 *
b1100101011 +
1,
b1100101011 0
b110010101100000010000010001010 1
b1100101011 3
b000001000110 4
b000001000110 5
#808000000
0!
0&
0,
#812000000
1!
b000001100011 %
1&
b000001100011 *
b1100110011 +
1,
b1100110011 0
b110011001100110011001011111000 1
b1100110011 3
b000001100011 4
b000001100011 5
#816000000
0!
0&
0,
#820000000
1!
b000010000100 %
1&
b000010000100 *
b1100111011 +
1,
b1100111011 0
b110011101101100100010101100110 1
b1100111011 3
b000010000100 4
b000010000100 5
#824000000
0!
0&
0,
#828000000
1!
b000010101010 %
1&
b000010101010 *
b1101000011 +
1,
b1101000011 0
b110100001110010101011111010100 1
b1101000011 3
b000010101010 4
b000010101010 5
#832000000
0!
0&
0,
#836000000
1!
b000011010101 %
1&
b000011010101 *
b1101001011 +
1,
b1101001011 0
b110100101111000110101001000010 1
b1101001011 3
b000011010101 4
b000011010101 5
#840000000
0!
0&
0,
#844000000
1!
b000100000011 %
1&
b000100000011 *
b1101010011 +
1,
b1101010011 0
b110101001111110111110010110000 1
b1101010011 3
b000100000011 4
b000100000011 5
#848000000
0!
0&
0,
#852000000
1!
b000100111101 %
1&
b000100111101 *
b1101011100 +
1,
b1101011100 0
b110101110000101000111100011110 1
b1101011100 3
b000100111101 4
b000100111101 5
#856000000
0!
0&
0,
#860000000
1!
b000101110101 %
1&
b000101110101 *
b1101100100 +
1,
b1101100100 0
b110110010001011010000110001100 1
b1101100100 3
b000101110101 4
b000101110101 5
#864000000
0!
0&
0,
#868000000
1!
b000110110001 %
1&
b000110110001 *
b1101101100 +
1,
b1101101100 0
b110110110010001011001111111010 1
b1101101100 3
b000110110001 4
b000110110001 5
#872000000
0!
0&
0,
#876000000
1!
b000111110001 %
1&
b000111110001 *
b1101110100 +
1,
b1101110100 0
b110111010010111100011001101000 1
b1101110100 3
b000111110001 4
b000111110001 5
#880000000
0!
0&
0,
#884000000
1!
b001000110100 %
1&
b001000110100 *
b1101111100 +
1,
b1101111100 0
b110111110011101101100011010110 1
b1101111100 3
b001000110100 4
b001000110100 5
#888000000
0!
0&
0,
#892000000
1!
b001010000100 %
1&
b001010000100 *
b1110000101 +
1,
b1110000101 0
b111000010100011110101101000100 1
b1110000101 3
b001010000100 4
b001010000100 5
#896000000
0!
0&
0,
#900000000
1!
b001011001111 %
1&
b001011001111 *
b1110001101 +
1,
b1110001101 0
b111000110101001111110110110010 1
b1110001101 3
b001011001111 4
b001011001111 5
#904000000
0!
0&
0,
#908000000
1!
b001100011101 %
1&
b001100011101 *
b1110010101 +
1,
b1110010101 0
b111001010110000001000000100000 1
b1110010101 3
b001100011101 4
b001100011101 5
#912000000
0!
0&
0,
#916000000
1!
b001101101110 %
1&
b001101101110 *
b1110011101 +
1,
b1110011101 0
b111001110110110010001010001110 1
b1110011101 3
b001101101110 4
b001101101110 5
#920000000
0!
0&
0,
#924000000
1!
b001111000010 %
1&
b001111000010 *
b1110100101 +
1,
b1110100101 0
b111010010111100011010011111100 1
b1110100101 3
b001111000010 4
b001111000010 5
#928000000
0!
0&
0,
#932000000
1!
b010000100100 %
1&
b010000100100 *
b1110101110 +
1,
b1110101110 0
b111010111000010100011101101010 1
b1110101110 3
b010000100100 4
b010000100100 5
#936000000
0!
0&
0,
#940000000
1!
b010001111101 %
1&
b010001111101 *
b1110110110 +
1,
b1110110110 0
b111011011001000101100111011000 1
b1110110110 3
b010001111101 4
b010001111101 5
#944000000
0!
0&
0,
#948000000
1!
b010011011000 %
1&
b010011011000 *
b1110111110 +
1,
b1110111110 0
b111011111001110110110001000110 1
b1110111110 3
b010011011000 4
b010011011000 5
#952000000
0!
0&
0,
#956000000
1!
b010100110110 %
1&
b010100110110 *
b1111000110 +
1,
b1111000110 0
b111100011010100111111010110100 1
b1111000110 3
b010100110110 4
b010100110110 5
#960000000
0!
0&
0,
#964000000
1!
b010110010101 %
1&
b010110010101 *
b1111001110 +
1,
b1111001110 0
b111100111011011001000100100010 1
b1111001110 3
b010110010101 4
b010110010101 5
#968000000
0!
0&
0,
#972000000
1!
b011000000001 %
1&
b011000000001 *
b1111010111 +
1,
b1111010111 0
b111101011100001010001110010000 1
b1111010111 3
b011000000001 4
b011000000001 5
#976000000
0!
0&
0,
#980000000
1!
b011001100011 %
1&
b011001100011 *
b1111011111 +
1,
b1111011111 0
b111101111100111011010111111110 1
b1111011111 3
b011001100011 4
b011001100011 5
#984000000
0!
0&
0,
#988000000
1!
b011011000110 %
1&
b011011000110 *
b1111100111 +
1,
b1111100111 0
b111110011101101100100001101100 1
b1111100111 3
b011011000110 4
b011011000110 5
#992000000
0!
0&
0,
#996000000
1!
b011100101010 %
1&
b011100101010 *
b1111101111 +
1,
b1111101111 0
b111110111110011101101011011010 1
b1111101111 3
b011100101010 4
b011100101010 5
#1000000000
0!
0&
0,
#1004000000
1!
b011110001110 %
1&
b011110001110 *
b1111110111 +
1,
b1111110111 0
b111111011111001110110101001000 1
b1111110111 3
b011110001110 4
b011110001110 5
#1008000000
0!
0&
0,
#1012000000
1!
b011111110010 %
1&
b011111110010 *
b1111111111 +
1,
b1111111111 0
b111111111111111111111110110110 1
b1111111111 3
b011111110010 4
b011111110010 5
#1016000000
0!
0&
0,
#1020000000
1!
b100001100011 %
1&
b100001100011 *
b0000001000 +
1,
b0000001000 0
b000000100000110001001000100100 1
b0000001000 3
b100001100011 4
b100001100011 5
#1024000000
0!
0&
0,
#1028000000
1!
b100011001000 %
1&
b100011001000 *
b0000010000 +
1,
b0000010000 0
b000001000001100010010010010010 1
b0000010000 3
b100011001000 4
b100011001000 5
#1032000000
0!
0&
0,
#1036000000
1!
b100100101011 %
1&
b100100101011 *
b0000011000 +
1,
b0000011000 0
b000001100010010011011100000000 1
b0000011000 3
b100100101011 4
b100100101011 5
#1040000000
0!
0&
0,
#1044000000
1!
b100110001110 %
1&
b100110001110 *
b0000100000 +
1,
b0000100000 0
b000010000011000100100101101110 1
b0000100000 3
b100110001110 4
b100110001110 5
#1048000000
0!
0&
0,
#1052000000
1!
b100111110001 %
1&
b100111110001 *
b0000101000 +
1,
b0000101000 0
b000010100011110101101111011100 1
b0000101000 3
b100111110001 4
b100111110001 5
#1056000000
0!
0&
0,
#1060000000
1!
b101001011101 %
1&
b101001011101 *
b0000110001 +
1,
b0000110001 0
b000011000100100110111001001010 1
b0000110001 3
b101001011101 4
b101001011101 5
#1064000000
0!
0&
0,
#1068000000
1!
b101010111101 %
1&
b101010111101 *
b0000111001 +
1,
b0000111001 0
b000011100101011000000010111000 1
b0000111001 3
b101010111101 4
b101010111101 5
#1072000000
0!
0&
0,
#1076000000
1!
b101100011010 %
1&
b101100011010 *
b0001000001 +
1,
b0001000001 0
b000100000110001001001100100110 1
b0001000001 3
b101100011010 4
b101100011010 5
#1080000000
0!
0&
0,
#1084000000
1!
b101101110110 %
1&
b101101110110 *
b0001001001 +
1,
b0001001001 0
b000100100110111010010110010100 1
b0001001001 3
b101101110110 4
b101101110110 5
#1088000000
0!
0&
0,
#1092000000
1!
b101111001111 %
1&
b101111001111 *
b0001010001 +
1,
b0001010001 0
b000101000111101011100000000010 1
b0001010001 3
b101111001111 4
b101111001111 5
#1096000000
0!
0&
0,
#1100000000
1!
b110000110001 %
1&
b110000110001 *
b0001011010 +
1,
b0001011010 0
b000101101000011100101001110000 1
b0001011010 3
b110000110001 4
b110000110001 5
#1104000000
0!
0&
0,
#1108000000
1!
b110010000101 %
1&
b110010000101 *
b0001100010 +
1,
b0001100010 0
b000110001001001101110011011110 1
b0001100010 3
b110010000101 4
b110010000101 5
#1112000000
0!
0&
0,
#1116000000
1!
b110011010111 %
1&
b110011010111 *
b0001101010 +
1,
b0001101010 0
b000110101001111110111101001100 1
b0001101010 3
b110011010111 4
b110011010111 5
#1120000000
0!
0&
0,
#1124000000
1!
b110100100101 %
1&
b110100100101 *
b0001110010 +
1,
b0001110010 0
b000111001010110000000110111010 1
b0001110010 3
b110100100101 4
b110100100101 5
#1128000000
0!
0&
0,
#1132000000
1!
b110101110001 %
1&
b110101110001 *
b0001111010 +
1,
b0001111010 0
b000111101011100001010000101000 1
b0001111010 3
b110101110001 4
b110101110001 5
#1136000000
0!
0&
0,
#1140000000
1!
b110111000001 %
1&
b110111000001 *
b0010000011 +
1,
b0010000011 0
b001000001100010010011010010110 1
b0010000011 3
b110111000001 4
b110111000001 5
#1144000000
0!
0&
0,
#1148000000
1!
b111000000101 %
1&
b111000000101 *
b0010001011 +
1,
b0010001011 0
b001000101101000011100100000100 1
b0010001011 3
b111000000101 4
b111000000101 5
#1152000000
0!
0&
0,
#1156000000
1!
b111001000101 %
1&
b111001000101 *
b0010010011 +
1,
b0010010011 0
b001001001101110100101101110010 1
b0010010011 3
b111001000101 4
b111001000101 5
#1160000000
0!
0&
0,
#1164000000
1!
b111010000010 %
1&
b111010000010 *
b0010011011 +
1,
b0010011011 0
b001001101110100101110111100000 1
b0010011011 3
b111010000010 4
b111010000010 5
